Interlude One: Flavours of cocoa
…
There are 21 unique combinations of ingredients, comprising of seven
elements in total.

Data cleaning and feature
engineering

Lets have a look at that ingredients column.

# count elements of ingredients column
df %>% 
    count(ingredients, sort = T)

# A tibble: 22 x 2
   ingredients      n
   <chr>        <int>
 1 3- B,S,C       999
 2 2- B,S         718
 3 4- B,S,C,L     286
 4 5- B,S,C,V,L   184
 5 4- B,S,C,V     141
 6 <NA>            87
 7 2- B,S*         31
 8 4- B,S*,C,Sa    20
 9 3- B,S*,C       12
10 3- B,S,L         8
# ... with 12 more rows
…
Lets look again at our ingredients column:

df %>% 
    count(ingredients, sort = T)

# A tibble: 22 x 2
   ingredients                                        n
   <chr>                                          <int>
 1 3- beans,sugar,cocoa_butter                      999
 2 2- beans,sugar                                   718
 3 4- beans,sugar,cocoa_butter,lecithin             286
 4 5- beans,sugar,cocoa_butter,vanilla,lecithin     184
 5 4- beans,sugar,cocoa_butter,vanilla              141
 6 <NA>                                              87
 7 2- beans,non_sugar_sweetener                      31
 8 4- beans,non_sugar_sweetener,cocoa_butter,salt    20
 9 3- beans,non_sugar_sweetener,cocoa_butter         12
10 3- beans,sugar,lecithin                            8
# ... with 12 more rows
…
the separator between elements.

df <- df %>% 
  separate(col = ingredients, 
           into = c("n_ingredients", "ingredients"),
           sep = "-") %>% 
    # parse_number looks for a number inside a character column and discards the rest
  mutate(n_ingredients = parse_number(n_ingredients),
         # str_squish removes whitespace around the elements in the ingredients column
         ingredients = str_squish(ingredients))

df %>% 
  select(n_ingredients, ingredients)

# A tibble: 2,530 x 2
   n_ingredients ingredients                      
           <dbl> <chr>                            
 1             3 beans,sugar,cocoa_butter         
 2             3 beans,sugar,cocoa_butter         
 3             3 beans,sugar,cocoa_butter         
 4             3 beans,sugar,cocoa_butter         
 5             3 beans,sugar,cocoa_butter         
 6             3 beans,sugar,cocoa_butter         
 7             3 beans,sugar,cocoa_butter         
 8             4 beans,sugar,cocoa_butter,lecithin
 9             4 beans,sugar,cocoa_butter,lecithin
10             4 beans,sugar,cocoa_butter,lecithin
# ... with 2,520 more rows
…
What about the different
countries??

df %>% 
  count(country_of_bean_origin, sort = T)

# A tibble: 62 x 2
   country_of_bean_origin     n
   <chr>                  <int>
 1 Venezuela                246
 2 Peru                     231
 3 Dominican Republic       220
 4 Ecuador                  201
 5 Madagascar               171
 6 Blend                    144
 7 Nicaragua                100
 8 Bolivia                   79
 9 Colombia                  78
10 Tanzania                  78
# ... with 52 more rows
…
Word model

df_characteristics <- df %>% 
  select(c(most_memorable_characteristics, rating)) %>% 
  separate_rows(most_memorable_characteristics, sep = ",") %>% 
  mutate(most_memorable_characteristics = str_squish(most_memorable_characteristics))

df_characteristics %>% 
  count(most_memorable_characteristics, sort = T)

# A tibble: 948 x 2
   most_memorable_characteristics     n
   <chr>                          <int>
 1 sweet                            260
 2 nutty                            256
 3 cocoa                            242
 4 roasty                           212
 5 creamy                           187
 6 earthy                           181
 7 sandy                            164
 8 fatty                            161
 9 floral                           141
10 intense                          139
# ... with 938 more rows
…
library(tidymodels)
library(textrecipes)

df_characteristics_folds <- vfold_cv(df_characteristics)

glmnet_recipe <- 
  recipe(formula = rating ~ ., data = df_characteristics) %>% 
  step_tokenize(most_memorable_characteristics) %>% 
  step_tokenfilter(most_memorable_characteristics, max_tokens = 100) %>% 
  step_tf(most_memorable_characteristics) %>% 
  step_normalize(all_predictors(), -all_nominal())

glmnet_recipe %>% prep() %>% juice()

# A tibble: 6,839 x 101
   rating tf_most_memorable_charact~ tf_most_memorab~ tf_most_memorab~
    <dbl>                      <dbl>            <dbl>            <dbl>
 1   3.25                    -0.0767          -0.0630          -0.0805
 2   3.25                    -0.0767          -0.0630          -0.0805
 3   3.25                    -0.0767          -0.0630          -0.0805
 4   3.5                     -0.0767          -0.0630          -0.0805
 5   3.5                     -0.0767          -0.0630          -0.0805
 6   3.5                     -0.0767          -0.0630          -0.0805
 7   3.75                    -0.0767          -0.0630          -0.0805
 8   3.75                    -0.0767          -0.0630          -0.0805
 9   3.75                    -0.0767          -0.0630          -0.0805
10   3                       -0.0767          -0.0630          -0.0805
# ... with 6,829 more rows, and 97 more variables:
#   tf_most_memorable_characteristics_balanced <dbl>,
#   tf_most_memorable_characteristics_banana <dbl>,
#   tf_most_memorable_characteristics_base <dbl>,
#   tf_most_memorable_characteristics_basic <dbl>,
#   tf_most_memorable_characteristics_berry <dbl>,
#   tf_most_memorable_characteristics_bitter <dbl>, ...
…
